^C:\USERS\TAYMOUR\DOCUMENTS\VISUAL STUDIO 2015\PROJECTS\SFML_TEST\SFML_TEST\MAIN.CPP
/c /I"C:\SFML-2.4.2-WINDOWS-VC14-32-BIT\SFML-2.4.2\INCLUDE" /ZI /nologo /W3 /WX- /sdl /Od /Oy- /D WIN32 /D _DEBUG /D _CONSOLE /D _UNICODE /D UNICODE /Gm /EHsc /RTC1 /MDd /GS /fp:precise /Zc:wchar_t /Zc:forScope /Zc:inline /Fo"DEBUG\\" /Fd"DEBUG\VC140.PDB" /Gd /TP /analyze- C:\USERS\TAYMOUR\DOCUMENTS\VISUAL STUDIO 2015\PROJECTS\SFML_TEST\SFML_TEST\MAIN.CPP
^C:\USERS\TAYMOUR\DOCUMENTS\VISUAL STUDIO 2015\PROJECTS\MAIN CI\SFML_TEST\CHICKEN.CPP
/c /I"C:\SFML-2.4.2-WINDOWS-VC14-32-BIT\SFML-2.4.2\INCLUDE" /ZI /nologo /W3 /WX- /sdl /Od /Oy- /D WIN32 /D _DEBUG /D _CONSOLE /D _UNICODE /D UNICODE /Gm /EHsc /RTC1 /MDd /GS /fp:precise /Zc:wchar_t /Zc:forScope /Zc:inline /Fo"DEBUG\\" /Fd"DEBUG\VC140.PDB" /Gd /TP /analyze- C:\USERS\TAYMOUR\DOCUMENTS\VISUAL STUDIO 2015\PROJECTS\MAIN CI\SFML_TEST\CHICKEN.CPP
^C:\USERS\TAYMOUR\DOCUMENTS\VISUAL STUDIO 2015\PROJECTS\MAIN CI\SFML_TEST\EGGS.CPP
/c /I"C:\SFML-2.4.2-WINDOWS-VC14-32-BIT\SFML-2.4.2\INCLUDE" /ZI /nologo /W3 /WX- /sdl /Od /Oy- /D WIN32 /D _DEBUG /D _CONSOLE /D _UNICODE /D UNICODE /Gm /EHsc /RTC1 /MDd /GS /fp:precise /Zc:wchar_t /Zc:forScope /Zc:inline /Fo"DEBUG\\" /Fd"DEBUG\VC140.PDB" /Gd /TP /analyze- C:\USERS\TAYMOUR\DOCUMENTS\VISUAL STUDIO 2015\PROJECTS\MAIN CI\SFML_TEST\EGGS.CPP
^C:\USERS\TAYMOUR\DOCUMENTS\VISUAL STUDIO 2015\PROJECTS\MAIN CI\SFML_TEST\GAME.CPP
/c /I"C:\SFML-2.4.2-WINDOWS-VC14-32-BIT\SFML-2.4.2\INCLUDE" /ZI /nologo /W3 /WX- /sdl /Od /Oy- /D WIN32 /D _DEBUG /D _CONSOLE /D _UNICODE /D UNICODE /Gm /EHsc /RTC1 /MDd /GS /fp:precise /Zc:wchar_t /Zc:forScope /Zc:inline /Fo"DEBUG\\" /Fd"DEBUG\VC140.PDB" /Gd /TP /analyze- C:\USERS\TAYMOUR\DOCUMENTS\VISUAL STUDIO 2015\PROJECTS\MAIN CI\SFML_TEST\GAME.CPP
^C:\USERS\TAYMOUR\DOCUMENTS\VISUAL STUDIO 2015\PROJECTS\MAIN CI\SFML_TEST\MAIN.CPP
/c /I"C:\SFML-2.4.2-WINDOWS-VC14-32-BIT\SFML-2.4.2\INCLUDE" /ZI /nologo /W3 /WX- /sdl /Od /Oy- /D WIN32 /D _DEBUG /D _CONSOLE /D _UNICODE /D UNICODE /Gm /EHsc /RTC1 /MDd /GS /fp:precise /Zc:wchar_t /Zc:forScope /Zc:inline /Fo"DEBUG\\" /Fd"DEBUG\VC140.PDB" /Gd /TP /analyze- C:\USERS\TAYMOUR\DOCUMENTS\VISUAL STUDIO 2015\PROJECTS\MAIN CI\SFML_TEST\MAIN.CPP
^C:\USERS\TAYMOUR\DOCUMENTS\VISUAL STUDIO 2015\PROJECTS\MAIN CI\SFML_TEST\PICKUPS.CPP
/c /I"C:\SFML-2.4.2-WINDOWS-VC14-32-BIT\SFML-2.4.2\INCLUDE" /ZI /nologo /W3 /WX- /sdl /Od /Oy- /D WIN32 /D _DEBUG /D _CONSOLE /D _UNICODE /D UNICODE /Gm /EHsc /RTC1 /MDd /GS /fp:precise /Zc:wchar_t /Zc:forScope /Zc:inline /Fo"DEBUG\\" /Fd"DEBUG\VC140.PDB" /Gd /TP /analyze- C:\USERS\TAYMOUR\DOCUMENTS\VISUAL STUDIO 2015\PROJECTS\MAIN CI\SFML_TEST\PICKUPS.CPP
^C:\USERS\TAYMOUR\DOCUMENTS\VISUAL STUDIO 2015\PROJECTS\MAIN CI\SFML_TEST\PLAYER.CPP
/c /I"C:\SFML-2.4.2-WINDOWS-VC14-32-BIT\SFML-2.4.2\INCLUDE" /ZI /nologo /W3 /WX- /sdl /Od /Oy- /D WIN32 /D _DEBUG /D _CONSOLE /D _UNICODE /D UNICODE /Gm /EHsc /RTC1 /MDd /GS /fp:precise /Zc:wchar_t /Zc:forScope /Zc:inline /Fo"DEBUG\\" /Fd"DEBUG\VC140.PDB" /Gd /TP /analyze- C:\USERS\TAYMOUR\DOCUMENTS\VISUAL STUDIO 2015\PROJECTS\MAIN CI\SFML_TEST\PLAYER.CPP
^C:\USERS\TAYMOUR\DOCUMENTS\VISUAL STUDIO 2015\PROJECTS\MAIN CI\SFML_TEST\ROCKS.CPP
/c /I"C:\SFML-2.4.2-WINDOWS-VC14-32-BIT\SFML-2.4.2\INCLUDE" /ZI /nologo /W3 /WX- /sdl /Od /Oy- /D WIN32 /D _DEBUG /D _CONSOLE /D _UNICODE /D UNICODE /Gm /EHsc /RTC1 /MDd /GS /fp:precise /Zc:wchar_t /Zc:forScope /Zc:inline /Fo"DEBUG\\" /Fd"DEBUG\VC140.PDB" /Gd /TP /analyze- C:\USERS\TAYMOUR\DOCUMENTS\VISUAL STUDIO 2015\PROJECTS\MAIN CI\SFML_TEST\ROCKS.CPP
^C:\USERS\TAYMOUR\DOCUMENTS\VISUAL STUDIO 2015\PROJECTS\MAIN CI\SFML_TEST\SHOTS.CPP
/c /I"C:\SFML-2.4.2-WINDOWS-VC14-32-BIT\SFML-2.4.2\INCLUDE" /ZI /nologo /W3 /WX- /sdl /Od /Oy- /D WIN32 /D _DEBUG /D _CONSOLE /D _UNICODE /D UNICODE /Gm /EHsc /RTC1 /MDd /GS /fp:precise /Zc:wchar_t /Zc:forScope /Zc:inline /Fo"DEBUG\\" /Fd"DEBUG\VC140.PDB" /Gd /TP /analyze- C:\USERS\TAYMOUR\DOCUMENTS\VISUAL STUDIO 2015\PROJECTS\MAIN CI\SFML_TEST\SHOTS.CPP
^C:\USERS\TAYMOUR\DOCUMENTS\VISUAL STUDIO 2015\PROJECTS\MAIN CI\SFML_TEST\LEVELS.CPP
/c /I"C:\SFML-2.4.2-WINDOWS-VC14-32-BIT\SFML-2.4.2\INCLUDE" /ZI /nologo /W3 /WX- /sdl /Od /Oy- /D WIN32 /D _DEBUG /D _CONSOLE /D _UNICODE /D UNICODE /Gm /EHsc /RTC1 /MDd /GS /fp:precise /Zc:wchar_t /Zc:forScope /Zc:inline /Fo"DEBUG\\" /Fd"DEBUG\VC140.PDB" /Gd /TP /analyze- C:\USERS\TAYMOUR\DOCUMENTS\VISUAL STUDIO 2015\PROJECTS\MAIN CI\SFML_TEST\LEVELS.CPP
^C:\USERS\TAYMOUR\DOCUMENTS\VISUAL STUDIO 2015\PROJECTS\MAIN CI\SFML_TEST\LEVEL1.CPP
/c /I"C:\SFML-2.4.2-WINDOWS-VC14-32-BIT\SFML-2.4.2\INCLUDE" /ZI /nologo /W3 /WX- /sdl /Od /Oy- /D WIN32 /D _DEBUG /D _CONSOLE /D _UNICODE /D UNICODE /Gm /EHsc /RTC1 /MDd /GS /fp:precise /Zc:wchar_t /Zc:forScope /Zc:inline /Fo"DEBUG\\" /Fd"DEBUG\VC140.PDB" /Gd /TP /analyze- C:\USERS\TAYMOUR\DOCUMENTS\VISUAL STUDIO 2015\PROJECTS\MAIN CI\SFML_TEST\LEVEL1.CPP
^C:\USERS\TAYMOUR\DOCUMENTS\VISUAL STUDIO 2015\PROJECTS\MAIN CI\SFML_TEST\MENU.CPP
/c /I"C:\SFML-2.4.2-WINDOWS-VC14-32-BIT\SFML-2.4.2\INCLUDE" /ZI /nologo /W3 /WX- /sdl /Od /Oy- /D WIN32 /D _DEBUG /D _CONSOLE /D _UNICODE /D UNICODE /Gm /EHsc /RTC1 /MDd /GS /fp:precise /Zc:wchar_t /Zc:forScope /Zc:inline /Fo"DEBUG\\" /Fd"DEBUG\VC140.PDB" /Gd /TP /analyze- C:\USERS\TAYMOUR\DOCUMENTS\VISUAL STUDIO 2015\PROJECTS\MAIN CI\SFML_TEST\MENU.CPP
^C:\USERS\TAYMOUR\DOCUMENTS\VISUAL STUDIO 2015\PROJECTS\MAIN CI\SFML_TEST\LEVEL2.CPP
/c /I"C:\SFML-2.4.2-WINDOWS-VC14-32-BIT\SFML-2.4.2\INCLUDE" /ZI /nologo /W3 /WX- /sdl /Od /Oy- /D WIN32 /D _DEBUG /D _CONSOLE /D _UNICODE /D UNICODE /Gm /EHsc /RTC1 /MDd /GS /fp:precise /Zc:wchar_t /Zc:forScope /Zc:inline /Fo"DEBUG\\" /Fd"DEBUG\VC140.PDB" /Gd /TP /analyze- C:\USERS\TAYMOUR\DOCUMENTS\VISUAL STUDIO 2015\PROJECTS\MAIN CI\SFML_TEST\LEVEL2.CPP
^C:\USERS\TAYMOUR\DOCUMENTS\VISUAL STUDIO 2015\PROJECTS\MAIN CI\SFML_TEST\DARTH.CPP
/c /I"C:\SFML-2.4.2-WINDOWS-VC14-32-BIT\SFML-2.4.2\INCLUDE" /ZI /nologo /W3 /WX- /sdl /Od /Oy- /D WIN32 /D _DEBUG /D _CONSOLE /D _UNICODE /D UNICODE /Gm /EHsc /RTC1 /MDd /GS /fp:precise /Zc:wchar_t /Zc:forScope /Zc:inline /Fo"DEBUG\\" /Fd"DEBUG\VC140.PDB" /Gd /TP /analyze- C:\USERS\TAYMOUR\DOCUMENTS\VISUAL STUDIO 2015\PROJECTS\MAIN CI\SFML_TEST\DARTH.CPP
^C:\USERS\TAYMOUR\DOCUMENTS\VISUAL STUDIO 2015\PROJECTS\MAIN CI\SFML_TEST\LEVEL3.CPP
/c /I"C:\SFML-2.4.2-WINDOWS-VC14-32-BIT\SFML-2.4.2\INCLUDE" /ZI /nologo /W3 /WX- /sdl /Od /Oy- /D WIN32 /D _DEBUG /D _CONSOLE /D _UNICODE /D UNICODE /Gm /EHsc /RTC1 /MDd /GS /fp:precise /Zc:wchar_t /Zc:forScope /Zc:inline /Fo"DEBUG\\" /Fd"DEBUG\VC140.PDB" /Gd /TP /analyze- C:\USERS\TAYMOUR\DOCUMENTS\VISUAL STUDIO 2015\PROJECTS\MAIN CI\SFML_TEST\LEVEL3.CPP
^C:\USERS\TAYMOUR\DOCUMENTS\VISUAL STUDIO 2015\PROJECTS\MAIN CI\SFML_TEST\SCOREBOARD.CPP
/c /I"C:\SFML-2.4.2-WINDOWS-VC14-32-BIT\SFML-2.4.2\INCLUDE" /ZI /nologo /W3 /WX- /sdl /Od /Oy- /D WIN32 /D _DEBUG /D _CONSOLE /D _UNICODE /D UNICODE /Gm /EHsc /RTC1 /MDd /GS /fp:precise /Zc:wchar_t /Zc:forScope /Zc:inline /Fo"DEBUG\\" /Fd"DEBUG\VC140.PDB" /Gd /TP /analyze- C:\USERS\TAYMOUR\DOCUMENTS\VISUAL STUDIO 2015\PROJECTS\MAIN CI\SFML_TEST\SCOREBOARD.CPP
