^C:\USERS\TAYMOUR\DOCUMENTS\VISUAL STUDIO 2015\PROJECTS\SFML_TEST\SFML_TEST\DEBUG\MAIN.OBJ
C:\USERS\TAYMOUR\DOCUMENTS\VISUAL STUDIO 2015\PROJECTS\SFML_TEST\DEBUG\SFML_TEST.ILK
C:\USERS\TAYMOUR\DOCUMENTS\VISUAL STUDIO 2015\PROJECTS\SFML_TEST\DEBUG\SFML_TEST.EXE
C:\USERS\TAYMOUR\DOCUMENTS\VISUAL STUDIO 2015\PROJECTS\SFML_TEST\DEBUG\SFML_TEST.PDB
^C:\USERS\TAYMOUR\DOCUMENTS\VISUAL STUDIO 2015\PROJECTS\MAIN CI\SFML_TEST\DEBUG\CHICKEN.OBJ|C:\USERS\TAYMOUR\DOCUMENTS\VISUAL STUDIO 2015\PROJECTS\MAIN CI\SFML_TEST\DEBUG\DARTH.OBJ|C:\USERS\TAYMOUR\DOCUMENTS\VISUAL STUDIO 2015\PROJECTS\MAIN CI\SFML_TEST\DEBUG\EGGS.OBJ|C:\USERS\TAYMOUR\DOCUMENTS\VISUAL STUDIO 2015\PROJECTS\MAIN CI\SFML_TEST\DEBUG\GAME.OBJ|C:\USERS\TAYMOUR\DOCUMENTS\VISUAL STUDIO 2015\PROJECTS\MAIN CI\SFML_TEST\DEBUG\LEVEL1.OBJ|C:\USERS\TAYMOUR\DOCUMENTS\VISUAL STUDIO 2015\PROJECTS\MAIN CI\SFML_TEST\DEBUG\LEVEL2.OBJ|C:\USERS\TAYMOUR\DOCUMENTS\VISUAL STUDIO 2015\PROJECTS\MAIN CI\SFML_TEST\DEBUG\LEVEL3.OBJ|C:\USERS\TAYMOUR\DOCUMENTS\VISUAL STUDIO 2015\PROJECTS\MAIN CI\SFML_TEST\DEBUG\MAIN.OBJ|C:\USERS\TAYMOUR\DOCUMENTS\VISUAL STUDIO 2015\PROJECTS\MAIN CI\SFML_TEST\DEBUG\MENU.OBJ|C:\USERS\TAYMOUR\DOCUMENTS\VISUAL STUDIO 2015\PROJECTS\MAIN CI\SFML_TEST\DEBUG\PICKUPS.OBJ|C:\USERS\TAYMOUR\DOCUMENTS\VISUAL STUDIO 2015\PROJECTS\MAIN CI\SFML_TEST\DEBUG\PLAYER.OBJ|C:\USERS\TAYMOUR\DOCUMENTS\VISUAL STUDIO 2015\PROJECTS\MAIN CI\SFML_TEST\DEBUG\ROCKS.OBJ|C:\USERS\TAYMOUR\DOCUMENTS\VISUAL STUDIO 2015\PROJECTS\MAIN CI\SFML_TEST\DEBUG\SCOREBOARD.OBJ|C:\USERS\TAYMOUR\DOCUMENTS\VISUAL STUDIO 2015\PROJECTS\MAIN CI\SFML_TEST\DEBUG\SHOTS.OBJ
C:\USERS\TAYMOUR\DOCUMENTS\VISUAL STUDIO 2015\PROJECTS\MAIN CI\DEBUG\SFML_TEST.ILK
C:\USERS\TAYMOUR\DOCUMENTS\VISUAL STUDIO 2015\PROJECTS\MAIN CI\DEBUG\SFML_TEST.EXE
C:\USERS\TAYMOUR\DOCUMENTS\VISUAL STUDIO 2015\PROJECTS\MAIN CI\DEBUG\SFML_TEST.PDB
